Applied Data Analysis 2026 - 9 Exploratory Data Analysis
…
Doing the same thing with {dplyr} verbs (see Module 10) provides nicer output…

t <- group_by(d, govt_form) %>%
    summarize(count = n()) %>%
    arrange(desc(count))
t

## # A tibble: 33 × 2
##    govt_form                      count
##    <chr>                          <int>
##  1 republic                         127
##  2 constitutional monarchy           33
##  3 British overseas territory        12
##  4 overseas territory of France       7
##  5 presidential federal republic      7
##  6 monarchy                           6
##  7 parliamentary monarchy             5
##  8 territory of the United States     5
##  9 parliamentary democracy            4
## 10 territory of Australia             4
## # ℹ 23 more rows
…
